"vars";"n";"mean";"sd";"median";"trimmed";"mad";"min";"max";"range";"skew";"kurtosis";"se"
"week*";1;109;55;31,6095976985894;55;55;40,0302;1;109;108;0;-1,23307435094995;3,02765035409749
"bitcoin.week*";2;109;55;31,6095976985894;55;55;40,0302;1;109;108;0;-1,23307435094995;3,02765035409749
"bitcoin.open";3;109;29181,3135522314;8753,34643318183;27967,5105790871;28779,5840248076;10467,9160580509;16304,0768556236;50852,8602595407;34548,7834039171;0,457100529448025;-0,856154988028633;838,418529734836
"bitcoin.close";4;109;29106,9374060239;8643,9159573752;27670,1994984968;28784,3259069866;9629,43772654112;16456,1560624967;47816,0776764085;31359,9216139118;0,40362158409265;-1,03912098021356;827,936991121652
"bitcoin.return.p";5;109;0,161365102737282;8,07751114112492;0,111597391739834;0,164467204915677;5,0538424783325;-32,8705135253299;32,0942329278044;64,9647464531343;-0,0257939876964032;4,08274866300359;0,773685249013615
"bitcoin.return";6;109;-78,3841890595329;2283,18881010719;33,7740548683032;12,5554148009989;1692,26967104493;-9326,7271690421;6586,2360317532;15912,9632007953;-0,828113536684722;3,19082377350311;218,689825644347
"bitcoin.news_sentiment";7;109;0,149548419507794;0,0676639397764103;0,152857142857143;0,150130799570053;0,0679172000000003;-0,00323943661971831;0,307;0,310239436619718;-0,041143502435617;-0,523921643476964;0,00648103000794667
"bitcoin.sm_sentiment";8;109;-0,123421217369897;0,0442460607440632;-0,11973293768546;-0,122553196718114;0,0433816124675811;-0,221223628691983;-0,0195238095238095;0,201699819168174;-0,178260718577052;-0,556355348944154;0,00423800399981555
"bitcoin.trend";9;109;0,24743119266055;0,090966046471205;0,22;0,23247191011236;0,059304;0,14;0,65;0,51;1,90013406501032;4,08086807784517;0,00871296703727689
"bitcoin.news_menge";10;109;63,1651376146789;26,0403937507452;58;59,9550561797753;17,7912;6;246;240;3,55758501842496;21,1823705261981;2,49421736119724
"bitcoin.sm_menge";11;109;591,018348623853;543,368846515803;374;493,134831460674;255,0072;124;3777;3653;2,76274914945504;10,6998956215455;52,0452963763134
"ethereum.week*";12;109;55;31,6095976985894;55;55;40,0302;1;109;108;0;-1,23307435094995;3,02765035409749
"ethereum.open";13;109;1932,10905873783;615,785859808704;1799,00865861501;1858,74226305726;367,216508098514;1074,60731757876;4075,03161894955;3000,42430137079;1,20080396891817;1,20704625108842;58,9815882592284
"ethereum.close";14;109;1916,31265626114;581,289759362285;1797,19947013765;1854,44334805335;379,241838872036;995,252569270791;3780,31587432785;2785,06330505706;1,01191410584562;0,484929821644317;55,6774610847074
"ethereum.return.p";15;109;-0,0310218293889379;9,95419267475503;-0,255252190737696;0,195445456575075;7,13718686797167;-34,952454275867;25,0221544674899;59,9746087433569;-0,332651343288962;1,37959707678377;0,953438739203621
"ethereum.return";16;109;-16,9051744871671;204,351911452372;-4,86325324747986;-3,44998617684078;132,291068711485;-923,86880355171;415,06952581809;1338,9383293698;-1,18564050632346;3,62447746967344;19,5733632224267
"ethereum.news_sentiment";17;109;0,210764170926441;0,0906511490739799;0,204;0,210992704949359;0,0849594260869566;-0,104375;0,417777777777778;0,522152777777778;-0,276059798173565;0,727119127958721;0,0086828053368559
"ethereum.sm_sentiment";18;109;-0,045425645668523;0,117924990373222;-0,0588235294117647;-0,050503829675924;0,100794533166458;-0,285714285714286;0,363636363636364;0,64935064935065;0,631185291612609;0,438253774284077;0,0112951655463923
"ethereum.trend";19;109;0,174311926605505;0,09052692429938;0,14;0,161910112359551;0,07413;0,07;0,45;0,38;1,18888670447673;0,77962161594443;0,00867090676141715
"ethereum.news_menge";20;109;17,9908256880734;8,95616424679842;16;17,0449438202247;4,4478;3;79;76;3,12349984783313;17,8384214577361;0,857844953034142
"ethereum.sm_menge";21;109;49,2293577981651;64,1464806672289;21;37,3595505617978;17,7912;5;475;470;3,51865538079633;17,4422020158797;6,14411852875022
"ripple.week*";22;109;55;31,6095976985894;55;55;40,0302;1;109;108;0;-1,23307435094995;3,02765035409749
"ripple.open";23;109;0,518547200541024;0,149656936455912;0,489572300849981;0,505626103662692;0,168306532263669;0,32252946473795;0,921873933418014;0,599344468680064;0,681536179018612;-0,48761512099206;0,0143345347503144
"ripple.close";24;109;0,516311013580075;0,144365119861314;0,489612153499544;0,503625245770924;0,15468962871085;0,309330958004928;0,850999499661576;0,541668541656648;0,67728781511377;-0,553425642126983;0,0138276706472269
"ripple.return.p";25;109;-0,0395087911667655;9,99849340965288;0,070226149455353;-0,425687652575863;5,79622779740377;-26,3472615766457;51,6187552383163;77,966016814962;1,21444752525976;6,43294116135197;0,957681980037598
"ripple.return";26;109;-0,0036499494598377;0,0530494618989999;0,000579036019723089;-0,00248002451252894;0,0278642256851366;-0,18327812351835;0,242828571355509;0,426106694873859;0,369262647283223;5,1287572807368;0,00508121690237001
"ripple.news_sentiment";27;109;0,108809272692362;0,0686603781077292;0,107;0,107967405508064;0,0728387032258072;-0,038;0,2628125;0,3008125;0,112519296421238;-0,712185804492089;0,00657647149048059
"ripple.sm_sentiment";28;109;-0,070082384602963;0,167100337217128;-0,0648421052631579;-0,0681393033432015;0,141841402429151;-0,625;0,4;1,025;-0,167412971079321;0,808805439756296;0,0160053095255883
"ripple.trend";29;109;0,151651376146789;0,0834167777939974;0,13;0,139213483146067;0,044478;0,06;0,65;0,59;3,07844869596197;13,5531531918465;0,00798987823995427
"ripple.news_menge";30;109;25,0091743119266;10,5343313634464;24;24,314606741573;10,3782;6;66;60;1,03446991389491;2,18531522647857;1,00900594771385
"ripple.sm_menge";31;109;27,2477064220184;21,4688214771263;20;24,1460674157303;16,3086;1;112;111;1,38954777389555;1,91682906518968;2,05634015235119
"gold";32;109;1878,9990816789;108,17800355687;1909,300049;1884,69775117978;109,2677282298;1639,599976;2071;431,400024;-0,418157285720153;-0,697177344925142;10,3615735289517
"gold_return";33;109;0,117235801853043;1,93916714059237;0,210533046879754;0,081870501162589;1,8370401003979;-4,01475262472522;5,78947631578947;9,80422894051469;0,309064673455009;0,383311804150918;0,185738525869652
"eurusd";34;109;1,06921983486239;0,0398127294796605;1,076079;1,07152598876404;0,0317513616000001;0,974963;1,145712;0,170749;-0,591375424977299;-0,0699051453379673;0,00381336787820178
"eurusd_return";35;109;-0,0325684940118632;1,20602982663598;-0,130658306980089;-0,0976085707934773;0,960382988536403;-3,05467929466793;4,53955688574849;7,59423618041642;0,649090636745539;1,62854605791262;0,115516706871265
